[
    {
        "cells": [
            5,
            6,
            7,
            8,
            9
        ],
        "solution": "L2L1L1"
    },
    {
        "cells": [
            0,
            1,
            2,
            3,
            4
        ],
        "solution": "T3T2T1"
    },
    {
        "cells": [
            5,
            6,
            7,
            8
        ],
        "solution": "L1T1T2T1"
    },
    {
        "cells": [
            2,
            3,
            4,
            5
        ],
        "solution": "L4L3L2T4L1"
    },
    {
        "cells": [
            6,
            7,
            8
        ],
        "solution": "T1L2L2L1T3"
    },
    {
        "cells": [
            2,
            5,
            9
        ],
        "solution": "T1T3T2L1L3T1"
    },
    {
        "cells": [
            6,
            7
        ],
        "solution": "T1L2L2L1T2"
    },
    {
        "cells": [
            5,
            8
        ],
        "solution": "T1L2L2T2T1"
    },
    {
        "cells": [
            7
        ],
        "solution": "T3L1T2T1L2L1"
    },
    {
        "cells": [
            6
        ],
        "solution": "T3T2L4T1L2L1"
    },
    {
        "cells": [
            1
        ],
        "solution": "T3T2L4T1L2L1"
    },
    {
        "cells": [
            2,
            5
        ],
        "solution": "L2L1L1T3T2"
    },
    {
        "cells": [
            2
        ],
        "solution": "T3L1T2T1L2L1"
    },
    {
        "cells": [
            1,
            6
        ],
        "solution": "T3T2L4T1L2"
    },
    {
        "cells": [
            3,
            4,
            6
        ],
        "solution": "L1T1T2T1F.L3"
    },
    {
        "cells": [
            5,
            6,
            7
        ],
        "solution": "L3T3L2L1"
    },
    {
        "cells": [
            3,
            6
        ],
        "solution": "L1T1T2T1L3L2"
    },
    {
        "cells": [
            0,
            7
        ],
        "solution": "L2L1L1T4T2"
    },
    {
        "cells": [
            0
        ],
        "solution": "T3T2L4L2L1T1"
    },
    {
        "cells": [
            0,
            1
        ],
        "solution": "T3T2L4L2T1"
    },
    {
        "cells": [
            2,
            3,
            5
        ],
        "solution": "L2L1L1T4T3"
    },
    {
        "cells": [
            4,
            6,
            7
        ],
        "solution": "L1T1T2T1L3"
    },
    {
        "cells": [
            1,
            2
        ],
        "solution": "L1T1T2T1L2"
    },
    {
        "cells": [
            4,
            5
        ],
        "solution": "L2L1L1T3T1"
    },
    {
        "cells": [
            5,
            6,
            9
        ],
        "solution": "L4T3L2L1"
    },
    {
        "cells": [
            0,
            1,
            2
        ],
        "solution": "T3L3L1L1"
    },
    {
        "cells": [
            4,
            5,
            6
        ],
        "solution": "L2F.L1L1T3"
    },
    {
        "cells": [
            0,
            1,
            2,
            3
        ],
        "solution": "L1T1T2T1"
    },
    {
        "cells": [
            4,
            5,
            6,
            7
        ],
        "solution": "L2L1L1T4"
    },
    {
        "cells": [
            1,
            2,
            3
        ],
        "solution": "L1T1T2T1L3"
    },
    {
        "cells": [
            0,
            4,
            7
        ],
        "solution": "L2L1L1T1T3"
    },
    {
        "cells": [
            0,
            3
        ],
        "solution": "T1L2L2T2T1"
    },
    {
        "cells": [
            3,
            5,
            6
        ],
        "solution": "L1T1T2T1L1"
    },
    {
        "cells": [
            0,
            1,
            4
        ],
        "solution": "T3L3L1L1"
    },
    {
        "cells": [
            3,
            4,
            5
        ],
        "solution": "L2L1L1T3"
    },
    {
        "cells": [
            5,
            7,
            8
        ],
        "solution": "T4T3L1L2L1"
    },
    {
        "cells": [
            5,
            7
        ],
        "solution": "T3L1T2L2L1"
    },
    {
        "cells": [
            8,
            16
        ],
        "solution": "T4T3T2T1L4L3L2"
    },
    {
        "cells": [
            9,
            15
        ],
        "solution": "T3T2L4L3L2T1"
    },
    {
        "cells": [
            3,
            6,
            11,
            13
        ],
        "solution": "T1L4T3T2L2"
    },
    {
        "cells": [
            4,
            6,
            13,
            15
        ],
        "solution": "T4L1T3L3L2T2"
    },
    {
        "cells": [
            11,
            13
        ],
        "solution": "T4T3T2L3L2L1"
    },
    {
        "cells": [
            9,
            11
        ],
        "solution": "L4T3L2T2L1"
    },
    {
        "cells": [
            4,
            6
        ],
        "solution": "T3L3L1T2L1"
    },
    {
        "cells": [
            5,
            9,
            14,
            16
        ],
        "solution": "T4L4L3T3L1T1"
    },
    {
        "cells": [
            8,
            10
        ],
        "solution": "L3T3L1T2T1"
    },
    {
        "cells": [
            5,
            9
        ],
        "solution": "L4T3L2T1L1"
    },
    {
        "cells": [
            10,
            12,
            13
        ],
        "solution": "L4T3T2T1L3"
    },
    {
        "cells": [
            2,
            4,
            5
        ],
        "solution": "L3T1F.L1T3L1"
    },
    {
        "cells": [
            7,
            12
        ],
        "solution": "L2T4L2L1T2"
    },
    {
        "cells": [
            4,
            10
        ],
        "solution": "T3T2T1L3L1"
    },
    {
        "cells": [
            12
        ],
        "solution": "T3T2T1L3L2L1"
    },
    {
        "cells": [
            2,
            12
        ],
        "solution": "L4T3T2T1L2"
    },
    {
        "cells": [
            0,
            2
        ],
        "solution": "T3L1T2L2L1"
    },
    {
        "cells": [
            1,
            2,
            10,
            12
        ],
        "solution": "L4T3T2L2"
    },
    {
        "cells": [
            0,
            7,
            10,
            12
        ],
        "solution": "L2T4L2T2"
    },
    {
        "cells": [
            10,
            11,
            14
        ],
        "solution": "L3T3T2T1"
    },
    {
        "cells": [
            10,
            14
        ],
        "solution": "L3T3T2T1L1"
    },
    {
        "cells": [
            4,
            11
        ],
        "solution": "L3T3L2L1T1"
    },
    {
        "cells": [
            2,
            10
        ],
        "solution": "T3T2T1L4L2"
    },
    {
        "cells": [
            2,
            7
        ],
        "solution": "T3L1T2T1L2"
    },
    {
        "cells": [
            2,
            3,
            10,
            11
        ],
        "solution": "L1T2L2T1"
    },
    {
        "cells": [
            2,
            4,
            15,
            16
        ],
        "solution": "L1T3L2T1"
    },
    {
        "cells": [
            7,
            10
        ],
        "solution": "T3T2L4T1L2"
    },
    {
        "cells": [
            3,
            10
        ],
        "solution": "T2T2L2T1L2"
    },
    {
        "cells": [
            4,
            15
        ],
        "solution": "T3L3L1T1T1"
    },
    {
        "cells": [
            3,
            4,
            10,
            17
        ],
        "solution": "T2L4L2T2"
    },
    {
        "cells": [
            0,
            1,
            10,
            14
        ],
        "solution": "T2L4T1L2"
    },
    {
        "cells": [
            3,
            5
        ],
        "solution": "L4T3L2L1T1"
    },
    {
        "cells": [
            0,
            4
        ],
        "solution": "T3L3L1T2T1"
    },
    {
        "cells": [
            0,
            4,
            5,
            9
        ],
        "solution": "L4T3L2T1"
    },
    {
        "cells": [
            0,
            1,
            5,
            6
        ],
        "solution": "T3T2L4L2"
    },
    {
        "cells": [
            5,
            9,
            10,
            14
        ],
        "solution": "L3T1L1T2"
    },
    {
        "cells": [
            0,
            4,
            15,
            19
        ],
        "solution": "T3L2L2T1"
    },
    {
        "cells": [
            0,
            1,
            15,
            19
        ],
        "solution": "L4T3L3L2T1"
    },
    {
        "cells": [
            3,
            15
        ],
        "solution": "L3T3L2L1T2"
    },
    {
        "cells": [
            0,
            4,
            10,
            11
        ],
        "solution": "T2L3L2T1"
    },
    {
        "cells": [
            0,
            2,
            5,
            7
        ],
        "solution": "T3L1T2L2"
    },
    {
        "cells": [
            0,
            2,
            4
        ],
        "solution": "T1L2T3L2L1"
    },
    {
        "cells": [
            4,
            15,
            17
        ],
        "solution": "L4T1T2L3T1"
    },
    {
        "cells": [
            4,
            20
        ],
        "solution": "T4T2L3T1L1"
    },
    {
        "cells": [
            5,
            9,
            15,
            16
        ],
        "solution": "L3T4T3T2L1"
    },
    {
        "cells": [
            1,
            3
        ],
        "solution": "L3T4T3L1T2L1"
    },
    {
        "cells": [
            8,
            15
        ],
        "solution": "L3T3L1T2L1"
    },
    {
        "cells": [
            3,
            8,
            15
        ],
        "solution": "L1T1T2L1F.T1"
    },
    {
        "cells": [
            0,
            1,
            3
        ],
        "solution": "T1T1L3L1L1"
    },
    {
        "cells": [
            4,
            10,
            15
        ],
        "solution": "T3T2L4L3T1"
    },
    {
        "cells": [
            4,
            9,
            15
        ],
        "solution": "L3T1L1L1T1"
    },
    {
        "cells": [
            1,
            2,
            6,
            7
        ],
        "solution": "L1T1T2L2"
    },
    {
        "cells": [
            0,
            2,
            3
        ],
        "solution": "L2T4T3L2L1"
    },
    {
        "cells": [
            2,
            3,
            15
        ],
        "solution": "T1L2L2L1T3"
    },
    {
        "cells": [
            3,
            4,
            15
        ],
        "solution": "L3T3L1L1"
    },
    {
        "cells": [
            5,
            6,
            7,
            9
        ],
        "solution": "L4T1T2T1"
    },
    {
        "cells": [
            0,
            1,
            2,
            4
        ],
        "solution": "L2T4L2L1"
    },
    {
        "cells": [
            4,
            5,
            7
        ],
        "solution": "L4T1T2T1L3"
    },
    {
        "cells": [
            6,
            8,
            13,
            16
        ],
        "solution": "L1L1T4T3T2L2"
    },
    {
        "cells": [
            1,
            3,
            12,
            15
        ],
        "solution": "L1T3L3L2T2"
    },
    {
        "cells": [
            6,
            8
        ],
        "solution": "L4L3L2T1T2T1"
    },
    {
        "cells": [
            8,
            11
        ],
        "solution": "T3T2L4L3L2T1"
    },
    {
        "cells": [
            1,
            12
        ],
        "solution": "T3L1T2T1L2"
    },
    {
        "cells": [
            0,
            8,
            10,
            13
        ],
        "solution": "T3L4T2L2"
    },
    {
        "cells": [
            1,
            3,
            6,
            8
        ],
        "solution": "L4L3L2T1T2"
    },
    {
        "cells": [
            10,
            13
        ],
        "solution": "T3T2T1L3L1"
    },
    {
        "cells": [
            8,
            9,
            11
        ],
        "solution": "L2T1T1L2L1"
    },
    {
        "cells": [
            5,
            6,
            8
        ],
        "solution": "L1L1T4T2T1"
    },
    {
        "cells": [
            1,
            3,
            11,
            12
        ],
        "solution": "L1L1T3T2L2"
    },
    {
        "cells": [
            2,
            7,
            12
        ],
        "solution": "T3T2T1L3"
    },
    {
        "cells": [
            0,
            12
        ],
        "solution": "T3T2T1L3L2"
    },
    {
        "cells": [
            6,
            9,
            16,
            17
        ],
        "solution": "T4T1L4L3L2T2"
    },
    {
        "cells": [
            1,
            3,
            10,
            12
        ],
        "solution": "L4L3L2T4T2"
    },
    {
        "cells": [
            3,
            11
        ],
        "solution": "T3L1T2T1L3L2"
    },
    {
        "cells": [
            0,
            9,
            10,
            17
        ],
        "solution": "T4T1L4L3L2T1"
    },
    {
        "cells": [
            5,
            7,
            10,
            12
        ],
        "solution": "L3L2T1T2"
    },
    {
        "cells": [
            4,
            10,
            15,
            19
        ],
        "solution": "L4L1T3T1L2"
    },
    {
        "cells": [
            0,
            4,
            10,
            13
        ],
        "solution": "T2L3L1T2"
    },
    {
        "cells": [
            0,
            3,
            14,
            20
        ],
        "solution": "L4T3L3T1L1"
    },
    {
        "cells": [
            5,
            8,
            10,
            13
        ],
        "solution": "T1L2L2T2"
    },
    {
        "cells": [
            0,
            3,
            5,
            8
        ],
        "solution": "T1L2L2T2"
    },
    {
        "cells": [
            3,
            5,
            10,
            13
        ],
        "solution": "L2T4L2T3T2"
    },
    {
        "cells": [
            2,
            4,
            13,
            20
        ],
        "solution": "T4L4T1L3L2T1"
    },
    {
        "cells": [
            9,
            10
        ],
        "solution": "T2T1L3L1T1"
    },
    {
        "cells": [
            1,
            4,
            16,
            17
        ],
        "solution": "T1L2T3T1L1"
    },
    {
        "cells": [
            6,
            7,
            11,
            12
        ],
        "solution": "L1T1T2F.L2"
    },
    {
        "cells": [
            11,
            12,
            13
        ],
        "solution": "T1L2T3L2L1"
    },
    {
        "cells": [
            1,
            2,
            10,
            13
        ],
        "solution": "T2T2L2L1"
    },
    {
        "cells": [
            7,
            10,
            14
        ],
        "solution": "L2T4L2T3L1"
    },
    {
        "cells": [
            1,
            8,
            13,
            16
        ],
        "solution": "T1L2L2T3T2"
    },
    {
        "cells": [
            0,
            3,
            11,
            12
        ],
        "solution": "T2T2L4L2"
    },
    {
        "cells": [
            10,
            11,
            12,
            13
        ],
        "solution": "L2T4L2L1"
    },
    {
        "cells": [
            7,
            8,
            10
        ],
        "solution": "T3T2L4T1L3"
    },
    {
        "cells": [
            9,
            11,
            12
        ],
        "solution": "T3T2L4L3T1"
    },
    {
        "cells": [
            8,
            10,
            11
        ],
        "solution": "L1T3L1T2T1"
    },
    {
        "cells": [
            0,
            9,
            14,
            15
        ],
        "solution": "T2T2L3L1"
    },
    {
        "cells": [
            7,
            8,
            9,
            10
        ],
        "solution": "T3T2L4T1"
    },
    {
        "cells": [
            4,
            10,
            17
        ],
        "solution": "L3T1F.L1L1T3"
    },
    {
        "cells": [
            8,
            9,
            15
        ],
        "solution": "T4T3T2T1L3"
    },
    {
        "cells": [
            2,
            9,
            15
        ],
        "solution": "L3F.T4L1L1T3"
    },
    {
        "cells": [
            3,
            4,
            10
        ],
        "solution": "T3T2L4T1L1"
    },
    {
        "cells": [
            5,
            7,
            9
        ],
        "solution": "L1L3T1T2T1"
    },
    {
        "cells": [
            1,
            2,
            11,
            13
        ],
        "solution": "T1T1L1L3L1T2"
    },
    {
        "cells": [
            4,
            5,
            10,
            13
        ],
        "solution": "T1L2T3L2T2"
    },
    {
        "cells": [
            1,
            2,
            13,
            16
        ],
        "solution": "L2T1T1L2T2"
    },
    {
        "cells": [
            0,
            9,
            15,
            16
        ],
        "solution": "T1L2T3T2L1"
    },
    {
        "cells": [
            3,
            8,
            11,
            16
        ],
        "solution": "L1T1T2L3L2"
    },
    {
        "cells": [
            2,
            5,
            14,
            20
        ],
        "solution": "L4L1T4T1L2T1"
    },
    {
        "cells": [
            2,
            4,
            10,
            13
        ],
        "solution": "T2L1L3L2T1"
    },
    {
        "cells": [
            2,
            3,
            10,
            13
        ],
        "solution": "L2T4T1L2T2"
    },
    {
        "cells": [
            1,
            4,
            9,
            20
        ],
        "solution": "T1T3L3T2L1"
    },
    {
        "cells": [
            0,
            2,
            14,
            15
        ],
        "solution": "T1T3L2T1L2"
    },
    {
        "cells": [
            1,
            4,
            10,
            12
        ],
        "solution": "T1T3L2T1L1"
    },
    {
        "cells": [
            4,
            9,
            10,
            15
        ],
        "solution": "T3L3L1T2"
    },
    {
        "cells": [
            2,
            3,
            4,
            10
        ],
        "solution": "T3T2T1L4"
    },
    {
        "cells": [
            2,
            3,
            10
        ],
        "solution": "T3L1T2T1L3"
    },
    {
        "cells": [
            4,
            7,
            20
        ],
        "solution": "T4L4T2L3T1"
    },
    {
        "cells": [
            8,
            9,
            10
        ],
        "solution": "T2T1L3T1"
    },
    {
        "cells": [
            3,
            4,
            20
        ],
        "solution": "T4T2L3T1"
    },
    {
        "cells": [
            2,
            14,
            15
        ],
        "solution": "L4L1T4L1T3L1"
    },
    {
        "cells": [
            4,
            5,
            14,
            20
        ],
        "solution": "L1L3L1T3T1"
    },
    {
        "cells": [
            0,
            3,
            10,
            13
        ],
        "solution": "L4T2T2L2"
    },
    {
        "cells": [
            4,
            11,
            12
        ],
        "solution": "T3T2T1L4L3"
    },
    {
        "cells": [
            6,
            9,
            15,
            17
        ],
        "solution": "T1L4L3T3T1L1"
    },
    {
        "cells": [
            3,
            4,
            11
        ],
        "solution": "L2T4L2L1T1"
    },
    {
        "cells": [
            3,
            10,
            11
        ],
        "solution": "T1T3T1L1T1L1"
    },
    {
        "cells": [
            2,
            10,
            14
        ],
        "solution": "T3T2T1L1L3"
    },
    {
        "cells": [
            4,
            5,
            13,
            16
        ],
        "solution": "T1L1L3T3T2L2"
    },
    {
        "cells": [
            0,
            4,
            13,
            15
        ],
        "solution": "T3L2T1L2"
    },
    {
        "cells": [
            0,
            3,
            10,
            14
        ],
        "solution": "L3L1T2T1"
    },
    {
        "cells": [
            4,
            9,
            11,
            16
        ],
        "solution": "L3T3L2T2"
    },
    {
        "cells": [
            4,
            16
        ],
        "solution": "L3T3L2T1T1"
    },
    {
        "cells": [
            0,
            4,
            15,
            16
        ],
        "solution": "L3T3L2T1"
    },
    {
        "cells": [
            0,
            4,
            16,
            17
        ],
        "solution": "T2L4L1L2T2"
    },
    {
        "cells": [
            1,
            9,
            14,
            16
        ],
        "solution": "T3L2L2T1"
    },
    {
        "cells": [
            0,
            4,
            19,
            20
        ],
        "solution": "T3T1L3L1"
    },
    {
        "cells": [
            2,
            4,
            13,
            16
        ],
        "solution": "T1L2T3T2L1"
    },
    {
        "cells": [
            10,
            11,
            13
        ],
        "solution": "L1T1L1T3T1T1"
    },
    {
        "cells": [
            5,
            8,
            13,
            16
        ],
        "solution": "L1T1T1L3L2T2"
    },
    {
        "cells": [
            4,
            6,
            11,
            13
        ],
        "solution": "L4L3T1L2T2"
    },
    {
        "cells": [
            4,
            6,
            13,
            20
        ],
        "solution": "T4L4T1L3T2L1"
    },
    {
        "cells": [
            7,
            8,
            15
        ],
        "solution": "T4T3T2T1L4L3"
    },
    {
        "cells": [
            7,
            9,
            15
        ],
        "solution": "T4L4L3L2L1T3"
    },
    {
        "cells": [
            3,
            8,
            16
        ],
        "solution": "T4T3T2T1L1L1"
    },
    {
        "cells": [
            3,
            6,
            14,
            16
        ],
        "solution": "T4L4L3L2T3T2"
    },
    {
        "cells": [
            5,
            9,
            15,
            18
        ],
        "solution": "T1L3L1T3T2"
    },
    {
        "cells": [
            6,
            8,
            11,
            13
        ],
        "solution": "L4L3L2T1T2"
    },
    {
        "cells": [
            9,
            10,
            12
        ],
        "solution": "L4T1T2L3T1"
    },
    {
        "cells": [
            9,
            10,
            11
        ],
        "solution": "T3T2L3T1"
    },
    {
        "cells": [
            0,
            2,
            11,
            13
        ],
        "solution": "T4T3T2L2L1"
    },
    {
        "cells": [
            3,
            6,
            13,
            15
        ],
        "solution": "T1T3L4L3T2L1"
    },
    {
        "cells": [
            10,
            11,
            12,
            14
        ],
        "solution": "L4T3T2T1"
    },
    {
        "cells": [
            4,
            10,
            12
        ],
        "solution": "L1T1T3T2L3T1"
    },
    {
        "cells": [
            7,
            9,
            10
        ],
        "solution": "L4T3T2L3T1"
    },
    {
        "cells": [
            0,
            9,
            14,
            16
        ],
        "solution": "T4L3T3L2T1"
    },
    {
        "cells": [
            0,
            4,
            13,
            20
        ],
        "solution": "L1T3L1T1L2"
    },
    {
        "cells": [
            2,
            3,
            14,
            16
        ],
        "solution": "L4L3T3L2T1"
    },
    {
        "cells": [
            4,
            7,
            15,
            16
        ],
        "solution": "T1L2T3L2T1"
    },
    {
        "cells": [
            1,
            8,
            10,
            13
        ],
        "solution": "T1L1T3T2L2"
    },
    {
        "cells": [
            3,
            5,
            14,
            20
        ],
        "solution": "L4L1T4T3L2T2"
    },
    {
        "cells": [
            2,
            5,
            10,
            13
        ],
        "solution": "T2L1T2L2"
    },
    {
        "cells": [
            0,
            4,
            11,
            12
        ],
        "solution": "T4T3L2T1L1"
    },
    {
        "cells": [
            4,
            10,
            11
        ],
        "solution": "T3T2T1L3"
    },
    {
        "cells": [
            0,
            1,
            14,
            20
        ],
        "solution": "T4T1L2T2L1"
    },
    {
        "cells": [
            1,
            2,
            15,
            19
        ],
        "solution": "L4T3L1L2T1"
    },
    {
        "cells": [
            2,
            9,
            10
        ],
        "solution": "L1T4L2F.L1T3"
    },
    {
        "cells": [
            0,
            8,
            13,
            15
        ],
        "solution": "T3L2L2T2"
    },
    {
        "cells": [
            1,
            2,
            10,
            14
        ],
        "solution": "T4L2T3T1L2"
    },
    {
        "cells": [
            2,
            4,
            20
        ],
        "solution": "L4T3T2L3T1"
    },
    {
        "cells": [
            2,
            9,
            20
        ],
        "solution": "T3T2L4T1L3"
    },
    {
        "cells": [
            0,
            3,
            15,
            18
        ],
        "solution": "T2T2L2L2"
    },
    {
        "cells": [
            5,
            9,
            12
        ],
        "solution": "L2L1T1T3L1"
    },
    {
        "cells": [
            3,
            4,
            16
        ],
        "solution": "T1L2L2L1T1"
    },
    {
        "cells": [
            4,
            11,
            16
        ],
        "solution": "L1T1T2L3T1"
    },
    {
        "cells": [
            9,
            10,
            11,
            12
        ],
        "solution": "T3L1T2T1"
    },
    {
        "cells": [
            9,
            12,
            15
        ],
        "solution": "L3T4L1T3L1"
    },
    {
        "cells": [
            4,
            7,
            10
        ],
        "solution": "T2L4T1L3T1"
    },
    {
        "cells": [
            2,
            4,
            9,
            11
        ],
        "solution": "L3T2T1L2"
    },
    {
        "cells": [
            3,
            5,
            10,
            12
        ],
        "solution": "T3L1T2L2"
    },
    {
        "cells": [
            0,
            4,
            9,
            11
        ],
        "solution": "L4L3T2T1L1"
    },
    {
        "cells": [
            1,
            3,
            8,
            15
        ],
        "solution": "L3T4L1T3T2"
    },
    {
        "cells": [
            6,
            9,
            14,
            16
        ],
        "solution": "T4L4T1L1F.L1T2"
    },
    {
        "cells": [
            0,
            4,
            5,
            12
        ],
        "solution": "T4T1L2L1T2"
    },
    {
        "cells": [
            0,
            2,
            7,
            10
        ],
        "solution": "T2L2T1L1"
    },
    {
        "cells": [
            1,
            4,
            11,
            12
        ],
        "solution": "L4L1T3T2L2"
    },
    {
        "cells": [
            5,
            8,
            13,
            15
        ],
        "solution": "T4T3L3T1L1"
    },
    {
        "cells": [
            4,
            6,
            16,
            17
        ],
        "solution": "T1L4L3T1L2T2"
    },
    {
        "cells": [
            4,
            5,
            10,
            14
        ],
        "solution": "T1L3L1T2"
    },
    {
        "cells": [
            0,
            9,
            16,
            17
        ],
        "solution": "L4L1T4T3L2T1"
    },
    {
        "cells": [
            0,
            3,
            8,
            11
        ],
        "solution": "L2T1L1T3T2"
    },
    {
        "cells": [
            1,
            4,
            12,
            20
        ],
        "solution": "T1L4L1F.T3T2L1"
    },
    {
        "cells": [
            2,
            10,
            19,
            20
        ],
        "solution": "T1L1T3L1T1L2"
    },
    {
        "cells": [
            2,
            3,
            15,
            18
        ],
        "solution": "L1T3L3L1T2"
    },
    {
        "cells": [
            10,
            12,
            14
        ],
        "solution": "T1T3L3L2L1"
    },
    {
        "cells": [
            4,
            9,
            10,
            20
        ],
        "solution": "T4T2L3L1"
    },
    {
        "cells": [
            2,
            3,
            14,
            15
        ],
        "solution": "T1T3L3T2L1"
    },
    {
        "cells": [
            0,
            4,
            9,
            20
        ],
        "solution": "T3L3L1T1"
    },
    {
        "cells": [
            1,
            3,
            8,
            10
        ],
        "solution": "L4T2T1L3L2"
    },
    {
        "cells": [
            0,
            4,
            9,
            10
        ],
        "solution": "T2T1L3L1"
    },
    {
        "cells": [
            2,
            4,
            9,
            10
        ],
        "solution": "L4L1F.T2T1L1"
    },
    {
        "cells": [
            1,
            9,
            16,
            17
        ],
        "solution": "T4T3L1T1L3L2"
    },
    {
        "cells": [
            5,
            9,
            16,
            17
        ],
        "solution": "L4L1T1L2T3T2"
    },
    {
        "cells": [
            3,
            5,
            10,
            14
        ],
        "solution": "L4L3T4L2T2"
    },
    {
        "cells": [
            4,
            5,
            16,
            17
        ],
        "solution": "T1L1T3L3T1L2"
    },
    {
        "cells": [
            1,
            4,
            10,
            17
        ],
        "solution": "T2L1L3L2T2"
    },
    {
        "cells": [
            2,
            5,
            13,
            15
        ],
        "solution": "L3T4T3T2L2"
    },
    {
        "cells": [
            3,
            4,
            10,
            12
        ],
        "solution": "T3T2L3L2"
    },
    {
        "cells": [
            7,
            9,
            15,
            16
        ],
        "solution": "T3T2L4L3L2"
    },
    {
        "cells": [
            0,
            14,
            20
        ],
        "solution": "L3L2T1T3L1"
    },
    {
        "cells": [
            2,
            4,
            10,
            11
        ],
        "solution": "T3T2L4L2"
    },
    {
        "cells": [
            2,
            3,
            4,
            20
        ],
        "solution": "T3T2L4T1"
    },
    {
        "cells": [
            4,
            15,
            16
        ],
        "solution": "T2L3T1T1"
    },
    {
        "cells": [
            10,
            11,
            12,
            13,
            14
        ],
        "solution": "T3T2T1"
    },
    {
        "cells": [
            4,
            10,
            11,
            12
        ],
        "solution": "L1L3L1L1T4"
    },
    {
        "cells": [
            0,
            4,
            12
        ],
        "solution": "T1T3T2L1L3T1"
    },
    {
        "cells": [
            4,
            7,
            14,
            15
        ],
        "solution": "L1T4T1L3L2T1"
    },
    {
        "cells": [
            2,
            5,
            14,
            15
        ],
        "solution": "T1T1L4L1T2L1"
    },
    {
        "cells": [
            0,
            2,
            14,
            16
        ],
        "solution": "L4T3L3L2T1"
    },
    {
        "cells": [
            1,
            4,
            12,
            15
        ],
        "solution": "T3L1L3L1T1"
    },
    {
        "cells": [
            0,
            4,
            13,
            16
        ],
        "solution": "T1L4T3L3F.T2L2"
    },
    {
        "cells": [
            3,
            5,
            13,
            16
        ],
        "solution": "T1L4T3L3F.T2L1"
    },
    {
        "cells": [
            0,
            9,
            15,
            18
        ],
        "solution": "T1T3F.L3L1T2"
    },
    {
        "cells": [
            4,
            5,
            10,
            12
        ],
        "solution": "L4L1F.T4L2T2"
    },
    {
        "cells": [
            2,
            9,
            15,
            16
        ],
        "solution": "L4L3T3T2L1"
    },
    {
        "cells": [
            3,
            4,
            15,
            17
        ],
        "solution": "L4T3L2T2"
    },
    {
        "cells": [
            1,
            4,
            14,
            15
        ],
        "solution": "T3L3L1T1"
    },
    {
        "cells": [
            2,
            4,
            15,
            18
        ],
        "solution": "T3L1L3L1T2"
    },
    {
        "cells": [
            3,
            4,
            11,
            12
        ],
        "solution": "T2L3L2T2"
    },
    {
        "cells": [
            1,
            4,
            9,
            10
        ],
        "solution": "L2T1T3L1T2"
    },
    {
        "cells": [
            3,
            6,
            14,
            15
        ],
        "solution": "L1L3T4T3T2L2"
    },
    {
        "cells": [
            0,
            9,
            14,
            20
        ],
        "solution": "L4L1L2T3T1"
    },
    {
        "cells": [
            0,
            3,
            15,
            19
        ],
        "solution": "L4T3T1L3L2"
    },
    {
        "cells": [
            0,
            3,
            8,
            15
        ],
        "solution": "T2L3T1L1"
    },
    {
        "cells": [
            1,
            4,
            9,
            15
        ],
        "solution": "L4T3L3T1L2"
    },
    {
        "cells": [
            5,
            8,
            15,
            18
        ],
        "solution": "T4T3T2L2L2"
    },
    {
        "cells": [
            2,
            5,
            10,
            14
        ],
        "solution": "L4L1T1L2T2"
    },
    {
        "cells": [
            2,
            10,
            15,
            19
        ],
        "solution": "L4T4T3L1T1L2"
    },
    {
        "cells": [
            3,
            4,
            12,
            20
        ],
        "solution": "L4L1T3T2L1"
    },
    {
        "cells": [
            1,
            2,
            13,
            15
        ],
        "solution": "L3T3L2T1"
    },
    {
        "cells": [
            0,
            8,
            15,
            18
        ],
        "solution": "L1L1F.T3L1T1"
    },
    {
        "cells": [
            5,
            9,
            14,
            15
        ],
        "solution": "T1T1L3L1T2"
    },
    {
        "cells": [
            4,
            5,
            15,
            18
        ],
        "solution": "L4L3T3T1L1"
    },
    {
        "cells": [
            1,
            9,
            14,
            20
        ],
        "solution": "L4T4L3T3L2T1"
    },
    {
        "cells": [
            1,
            2,
            14,
            16
        ],
        "solution": "T4T3L2T1L2"
    },
    {
        "cells": [
            0,
            4,
            9,
            15
        ],
        "solution": "T4L2T3L1T1"
    },
    {
        "cells": [
            0,
            2,
            13,
            16
        ],
        "solution": "L1T3L3L2T1"
    },
    {
        "cells": [
            4,
            6,
            15,
            17
        ],
        "solution": "L4L3T4T3L2T1"
    },
    {
        "cells": [
            3,
            5,
            14,
            16
        ],
        "solution": "L4T4T3L3L2T1"
    },
    {
        "cells": [
            0,
            3,
            14,
            15
        ],
        "solution": "T2L3L1T1"
    },
    {
        "cells": [
            0,
            9,
            19,
            20
        ],
        "solution": "L4T4L1F.T3L1T1"
    },
    {
        "cells": [
            4,
            5,
            10,
            17
        ],
        "solution": "L1T2F.L3T2L1"
    },
    {
        "cells": [
            1,
            8,
            13,
            15
        ],
        "solution": "L4T4T3L3T2L1"
    },
    {
        "cells": [
            3,
            10,
            19,
            20
        ],
        "solution": "T4T3L4L3T1L1"
    },
    {
        "cells": [
            2,
            4,
            15
        ],
        "solution": "L4T2T2T1L3"
    },
    {
        "cells": [
            6,
            9,
            14,
            15
        ],
        "solution": "T1T3L1L1T2L2"
    },
    {
        "cells": [
            2,
            3,
            13,
            16
        ],
        "solution": "L1T3L1T2L2"
    },
    {
        "cells": [
            0,
            1,
            14,
            16
        ],
        "solution": "L3T2L2T1"
    },
    {
        "cells": [
            0,
            3,
            5,
            12
        ],
        "solution": "T2L2T1L2"
    },
    {
        "cells": [
            0,
            2,
            19,
            20
        ],
        "solution": "L4F.T3L3T1L1"
    },
    {
        "cells": [
            2,
            14,
            20
        ],
        "solution": "L2F.L1T4L1T3"
    },
    {
        "cells": [
            0,
            2,
            5,
            12
        ],
        "solution": "L2L1T4T2"
    },
    {
        "cells": [
            0,
            3,
            10,
            11
        ],
        "solution": "T1T1F.L2T1L1"
    },
    {
        "cells": [
            3,
            6,
            13,
            16
        ],
        "solution": "L4L3L2T4T3T2"
    },
    {
        "cells": [
            1,
            8,
            15,
            18
        ],
        "solution": "L1L1F.T1L1T3T2"
    },
    {
        "cells": [
            4,
            12,
            15
        ],
        "solution": "L4L2T4L1T3"
    },
    {
        "cells": [
            2,
            4,
            10
        ],
        "solution": "L2T4L2L1T3"
    },
    {
        "cells": [
            3,
            4,
            12,
            15
        ],
        "solution": "T2L3L2T1"
    },
    {
        "cells": [
            0,
            3,
            13,
            16
        ],
        "solution": "T4T3L4F.L1T2L2"
    },
    {
        "cells": [
            4,
            5,
            13,
            20
        ],
        "solution": "T1T3L1L3L2T2"
    },
    {
        "cells": [
            1,
            4,
            9,
            11
        ],
        "solution": "L4T2T1F.L1L1"
    },
    {
        "cells": [
            4,
            7,
            15,
            18
        ],
        "solution": "L4L3T1T3T1L1"
    },
    {
        "cells": [
            0,
            4,
            15,
            17
        ],
        "solution": "T4L2T3T1L1"
    },
    {
        "cells": [
            0,
            1,
            14,
            15
        ],
        "solution": "L2T2L2T1"
    },
    {
        "cells": [
            1,
            2,
            19,
            20
        ],
        "solution": "L1L3T4T3T1L2"
    },
    {
        "cells": [
            1,
            4,
            19,
            20
        ],
        "solution": "L1L3T3T1L2"
    },
    {
        "cells": [
            1,
            4,
            9,
            16
        ],
        "solution": "T1L2T3L1T1"
    },
    {
        "cells": [
            2,
            5,
            15,
            19
        ],
        "solution": "L3T4T3L1T2"
    },
    {
        "cells": [
            2,
            3,
            4,
            15
        ],
        "solution": "T2L4T1T1"
    },
    {
        "cells": [
            1,
            14,
            20
        ],
        "solution": "L2T4L2T3L1"
    },
    {
        "cells": [
            4,
            5,
            14,
            16
        ],
        "solution": "T1L1T3L3T1L1"
    },
    {
        "cells": [
            1,
            4,
            14,
            20
        ],
        "solution": "L1L3T1T3L2T2"
    },
    {
        "cells": [
            6,
            8,
            13,
            15
        ],
        "solution": "L4L3T1T1L2T2"
    },
    {
        "cells": [
            0,
            2,
            13,
            15
        ],
        "solution": "T4T3L2T2L1"
    },
    {
        "cells": [
            4,
            5,
            14,
            15
        ],
        "solution": "T4T3T2L3L1"
    },
    {
        "cells": [
            3,
            10,
            15,
            19
        ],
        "solution": "L4T4T3L1T1F.L1"
    },
    {
        "cells": [
            5,
            9,
            10,
            17
        ],
        "solution": "L4T4T1L1T2L2"
    },
    {
        "cells": [
            4,
            10,
            15,
            18
        ],
        "solution": "T1L4T3L3T1L2"
    },
    {
        "cells": [
            1,
            4,
            15,
            17
        ],
        "solution": "T4L1L3L1T3T2"
    },
    {
        "cells": [
            0,
            2,
            14,
            20
        ],
        "solution": "L4T2L1F.T1L1"
    },
    {
        "cells": [
            0,
            3,
            8,
            16
        ],
        "solution": "L4T1T1F.L1T1L2"
    },
    {
        "cells": [
            0,
            9,
            18,
            20
        ],
        "solution": "L1T2F.L1T1L2"
    },
    {
        "cells": [
            1,
            2,
            14,
            15
        ],
        "solution": "T2L4L1L2T1"
    },
    {
        "cells": [
            0,
            3,
            14,
            16
        ],
        "solution": "L4T4T3L3F.T2L2"
    },
    {
        "cells": [
            1,
            3,
            8,
            11
        ],
        "solution": "L2L1T4T3T2"
    },
    {
        "cells": [
            2,
            9,
            15,
            18
        ],
        "solution": "L1T1T3T2L3L2"
    },
    {
        "cells": [
            2,
            3,
            14,
            20
        ],
        "solution": "T4T1L4L3L1T2"
    },
    {
        "cells": [
            0,
            8,
            13,
            16
        ],
        "solution": "L2T4T3L2T1"
    },
    {
        "cells": [
            1,
            3,
            15,
            18
        ],
        "solution": "L4F.L3T4L2T3T2"
    },
    {
        "cells": [
            1,
            9,
            14,
            15
        ],
        "solution": "L3T4T3L2T2"
    },
    {
        "cells": [
            4,
            6,
            13,
            16
        ],
        "solution": "T1L4T3T2L3L2"
    },
    {
        "cells": [
            1,
            3,
            8,
            16
        ],
        "solution": "L1T1F.T3L3L1T1"
    },
    {
        "cells": [
            4,
            12,
            20
        ],
        "solution": "T1T3T2L4T1L3"
    },
    {
        "cells": [
            1,
            2,
            14,
            20
        ],
        "solution": "T4T1L4L1L2T1"
    },
    {
        "cells": [
            0,
            1,
            13,
            15
        ],
        "solution": "T1T1F.L2T1L2"
    },
    {
        "cells": [
            4,
            5,
            15,
            16
        ],
        "solution": "T4T3L2T2L1"
    },
    {
        "cells": [
            0,
            1,
            10,
            13
        ],
        "solution": "T2L4F.L3L1T2"
    },
    {
        "cells": [
            3,
            8,
            10,
            15
        ],
        "solution": "L4T3L2T1"
    },
    {
        "cells": [
            1,
            4,
            14,
            16
        ],
        "solution": "T1L1L3T3L2T2"
    },
    {
        "cells": [
            4,
            7,
            15
        ],
        "solution": "L4T1L3L2L1T3"
    },
    {
        "cells": [
            7,
            8,
            9,
            15
        ],
        "solution": "T4T3T2T1L4"
    },
    {
        "cells": [
            5,
            9,
            17
        ],
        "solution": "T4T3T2T1L1L3"
    },
    {
        "cells": [
            1,
            9,
            15,
            17
        ],
        "solution": "T4L4T3T2F.L1L1"
    },
    {
        "cells": [
            2,
            4,
            9,
            16
        ],
        "solution": "L3T3L1T2"
    },
    {
        "cells": [
            2,
            9,
            14,
            15
        ],
        "solution": "T3L4L1T2L1"
    },
    {
        "cells": [
            2,
            14,
            15,
            20
        ],
        "solution": "L2T4T1L2T1"
    },
    {
        "cells": [
            0,
            9,
            15,
            17
        ],
        "solution": "T1T3L1T1L3L2"
    },
    {
        "cells": [
            2,
            15,
            19
        ],
        "solution": "L2T1T3L1L1"
    },
    {
        "cells": [
            0,
            3,
            19,
            20
        ],
        "solution": "L3T1T3L1T2"
    },
    {
        "cells": [
            0,
            4,
            10,
            17
        ],
        "solution": "T2L3T1L2"
    },
    {
        "cells": [
            0,
            2,
            15,
            19
        ],
        "solution": "L3T3L1T1"
    },
    {
        "cells": [
            0,
            9,
            17,
            20
        ],
        "solution": "T4L1L3T3F.L2T1"
    },
    {
        "cells": [
            0,
            3,
            8,
            10
        ],
        "solution": "L3T2T1L1"
    },
    {
        "cells": [
            0,
            1,
            19,
            20
        ],
        "solution": "L4L3T3L2T1"
    },
    {
        "cells": [
            4,
            9,
            11,
            20
        ],
        "solution": "L4L3T3T2L2"
    },
    {
        "cells": [
            1,
            9,
            15,
            18
        ],
        "solution": "L1T1T1F.L1T2L1"
    },
    {
        "cells": [
            3,
            14,
            15,
            20
        ],
        "solution": "L2T4T3L2T2"
    },
    {
        "cells": [
            7,
            14,
            15
        ],
        "solution": "T1T1L4T1L3T1"
    },
    {
        "cells": [
            0,
            4,
            14,
            15
        ],
        "solution": "L4T1T3L3T1L1"
    },
    {
        "cells": [
            2,
            4,
            13,
            15
        ],
        "solution": "T4L2T3T2L1"
    },
    {
        "cells": [
            2,
            3,
            13,
            15
        ],
        "solution": "L4T3L1T2L2"
    },
    {
        "cells": [
            2,
            4,
            9,
            15
        ],
        "solution": "L4T2F.L3T1L2"
    },
    {
        "cells": [
            1,
            8,
            19,
            20
        ],
        "solution": "T1L4T1F.L1T2L1"
    },
    {
        "cells": [
            3,
            6,
            15,
            19
        ],
        "solution": "L4T1T1F.L1T2L1"
    },
    {
        "cells": [
            0,
            4,
            17
        ],
        "solution": "L1L2T1T3L1"
    },
    {
        "cells": [
            4,
            15,
            16,
            17
        ],
        "solution": "L3T4L1L1"
    },
    {
        "cells": [
            4,
            5,
            12,
            15
        ],
        "solution": "T4T1L4L3L2T2"
    },
    {
        "cells": [
            0,
            3,
            13,
            15
        ],
        "solution": "T1T3L3T2L2"
    },
    {
        "cells": [
            3,
            5,
            14,
            21
        ],
        "solution": "L1T4T3L3L2T1"
    },
    {
        "cells": [
            3,
            6,
            14,
            20
        ],
        "solution": "T1L4L3T3L1T2"
    },
    {
        "cells": [
            1,
            4,
            15,
            16
        ],
        "solution": "L3T3L2T2"
    },
    {
        "cells": [
            4,
            10,
            15,
            17
        ],
        "solution": "T4L1F.L3T1L2T2"
    },
    {
        "cells": [
            1,
            3,
            14,
            20
        ],
        "solution": "T4L2T3L1T2"
    },
    {
        "cells": [
            1,
            9,
            17,
            20
        ],
        "solution": "T4L1L3T3T2L2"
    },
    {
        "cells": [
            1,
            4,
            18,
            20
        ],
        "solution": "L4T3L3F.T1L1"
    },
    {
        "cells": [
            4,
            5,
            17
        ],
        "solution": "L4F.L3L1T4L1T3"
    },
    {
        "cells": [
            7,
            9,
            14,
            15
        ],
        "solution": "L1F.T1L3T1L2T2"
    },
    {
        "cells": [
            3,
            4,
            14,
            15
        ],
        "solution": "L3T2L2T1"
    },
    {
        "cells": [
            0,
            4,
            9,
            16
        ],
        "solution": "L3T4T3L1T1"
    },
    {
        "cells": [
            2,
            15,
            19,
            20
        ],
        "solution": "L4T3L1T2L1"
    },
    {
        "cells": [
            4,
            5,
            19,
            20
        ],
        "solution": "L4F.T4L3T3L2T2"
    },
    {
        "cells": [
            4,
            5,
            12
        ],
        "solution": "L2L1T4L1T3"
    },
    {
        "cells": [
            2,
            5,
            19,
            20
        ],
        "solution": "T1L2T3L1T2"
    },
    {
        "cells": [
            2,
            4,
            9,
            20
        ],
        "solution": "L1F.L3T2L2T1"
    },
    {
        "cells": [
            3,
            5,
            19,
            20
        ],
        "solution": "T4L1T1F.L1T2L1"
    },
    {
        "cells": [
            4,
            5,
            9,
            20
        ],
        "solution": "T4L3T3L2T2"
    },
    {
        "cells": [
            0,
            4,
            5,
            17
        ],
        "solution": "T1T1L4L1T1L2"
    },
    {
        "cells": [
            0,
            4,
            15,
            18
        ],
        "solution": "T3L3L1T2"
    },
    {
        "cells": [
            3,
            5,
            14,
            15
        ],
        "solution": "T1T1L4L3T2L2"
    },
    {
        "cells": [
            4,
            6,
            9,
            20
        ],
        "solution": "L3T1T3L2T2"
    },
    {
        "cells": [
            1,
            3,
            14,
            16
        ],
        "solution": "T1T1F.L2T2L1"
    },
    {
        "cells": [
            1,
            9,
            15,
            16
        ],
        "solution": "T3L1T2F.L1L1"
    },
    {
        "cells": [
            4,
            5,
            15,
            19
        ],
        "solution": "T4L4F.L3T3L2T2"
    },
    {
        "cells": [
            0,
            4,
            14,
            20
        ],
        "solution": "L4T4L3T3L2T2"
    },
    {
        "cells": [
            3,
            15,
            19,
            20
        ],
        "solution": "L1F.T3L1T2L1"
    },
    {
        "cells": [
            4,
            6,
            15,
            19
        ],
        "solution": "L3T1L1T3T2"
    },
    {
        "cells": [
            3,
            4,
            15,
            18
        ],
        "solution": "T3L4T2L3L2"
    },
    {
        "cells": [
            1,
            9,
            18,
            20
        ],
        "solution": "T4L4T1F.L1T2L1"
    }
]