<?xml version="1.0" encoding="UTF-8" standalone="no"?>
<svg
   xmlns:dc="http://purl.org/dc/elements/1.1/"
   xmlns:cc="http://creativecommons.org/ns#"
   xmlns:rdf="http://www.w3.org/1999/02/22-rdf-syntax-ns#"
   xmlns:svg="http://www.w3.org/2000/svg"
   xmlns="http://www.w3.org/2000/svg"
   id="svg158"
   version="1.1"
   viewBox="-13 -312 325 970"
   height="970"
   width="325">
  <metadata
     id="metadata162">
    <rdf:RDF>
      <cc:Work
         rdf:about="">
        <dc:format>image/svg+xml</dc:format>
        <dc:type
           rdf:resource="http://purl.org/dc/dcmitype/StillImage" />
        <dc:title></dc:title>
      </cc:Work>
    </rdf:RDF>
  </metadata>
  <defs
     id="defs2" />
  <g
     transform="translate(0,-4.1313559)"
     id="g1745">
    <g
       id="g1046"
       transform="translate(-0.5,10.102066)">
      <rect
         id="rect4"
         height="50"
         width="50"
         y="-300"
         x="0"
         style="fill:#445fe5" />
      <rect
         id="rect6"
         height="28"
         width="28"
         y="-289"
         x="11"
         style="fill:#44e557" />
      <rect
         id="rect8"
         height="50"
         width="50"
         y="-300"
         x="50"
         style="fill:#bae544" />
      <path
         id="path10"
         d="M 99,-255 87.5,-295 H 76 l 11.5,40 z"
         style="fill:#b544e5" />
      <path
         id="path12"
         d="M 74,-255 62.5,-295 H 51 l 11.5,40 z"
         style="fill:#b544e5" />
      <rect
         id="rect14"
         height="50"
         width="50"
         y="-300"
         x="100"
         style="fill:#44e557" />
      <path
         id="path16"
         d="m 102.22383,-278.20098 a 23,23 0 1 1 25.97715,25.97715"
         style="fill:#e5448d" />
      <rect
         id="rect18"
         height="50"
         width="50"
         y="-300"
         x="150"
         style="fill:#e5448d" />
      <circle
         id="circle20"
         r="17"
         cy="-275"
         cx="175"
         style="fill:#445fe5" />
      <rect
         id="rect22"
         height="50"
         width="50"
         y="-300"
         x="200"
         style="fill:#bae544" />
      <rect
         id="rect24"
         height="28"
         width="28"
         y="-289"
         x="211"
         style="fill:#b544e5" />
      <rect
         id="rect26"
         height="50"
         width="50"
         y="-300"
         x="250"
         style="fill:#b544e5" />
      <rect
         id="rect28"
         height="28"
         width="28"
         y="-289"
         x="261"
         style="fill:#44e557" />
      <rect
         id="rect30"
         height="50"
         width="50"
         y="-250"
         x="0"
         style="fill:#44e5e2" />
      <rect
         id="rect32"
         height="28"
         width="28"
         y="-239"
         x="11"
         style="fill:#b544e5" />
      <rect
         id="rect34"
         height="50"
         width="50"
         y="-250"
         x="50"
         style="fill:#445fe5" />
      <path
         id="path36"
         d="m 99,-205 -23,-41 -23,41 z"
         style="fill:#e5448d" />
      <rect
         id="rect38"
         height="50"
         width="50"
         y="-250"
         x="100"
         style="fill:#b544e5" />
      <path
         id="path40"
         d="m 100,-200 13,-37 37,-13 -13,37 z"
         style="fill:#bae544" />
      <rect
         id="rect42"
         height="50"
         width="50"
         y="-250"
         x="150"
         style="fill:#445fe5" />
      <path
         id="path44"
         d="m 150,-250 13,37 37,13 -13,-37 z"
         style="fill:#44e557" />
      <rect
         id="rect46"
         height="50"
         width="50"
         y="-250"
         x="200"
         style="fill:#44e5e2" />
      <path
         id="path48"
         d="m 205,-201 41,-23 -41,-23 z"
         style="fill:#e5448d" />
      <rect
         id="rect50"
         height="50"
         width="50"
         y="-250"
         x="250"
         style="fill:#e58744" />
      <path
         id="path52"
         d="m 295,-249 -40,11.5 v 11.5 l 40,-11.5 z"
         style="fill:#b544e5" />
      <path
         id="path54"
         d="m 295,-224 -40,11.5 v 11.5 l 40,-11.5 z"
         style="fill:#b544e5" />
      <rect
         id="rect56"
         height="50"
         width="50"
         y="-200"
         x="0"
         style="fill:#b544e5" />
      <circle
         id="circle58"
         r="17"
         cy="-175"
         cx="25"
         style="fill:#e58744" />
      <rect
         id="rect60"
         height="50"
         width="50"
         y="-200"
         x="50"
         style="fill:#e58744" />
      <path
         id="path62"
         d="m 50,-150 13,-37 37,-13 -13,37 z"
         style="fill:#445fe5" />
      <rect
         id="rect64"
         height="50"
         width="50"
         y="-200"
         x="100"
         style="fill:#44e5e2" />
      <path
         id="path66"
         d="m 105,-151 41,-23 -41,-23 z"
         style="fill:#e58744" />
      <rect
         id="rect68"
         height="50"
         width="50"
         y="-200"
         x="150"
         style="fill:#bae544" />
      <path
         id="path70"
         d="m 151,-195 23,41 23,-41 z"
         style="fill:#e5448d" />
      <rect
         id="rect72"
         height="50"
         width="50"
         y="-200"
         x="200"
         style="fill:#b544e5" />
      <path
         id="path74"
         d="m 200,-200 13,37 37,13 -13,-37 z"
         style="fill:#44e557" />
      <rect
         id="rect76"
         height="50"
         width="50"
         y="-200"
         x="250"
         style="fill:#bae544" />
      <path
         id="path78"
         d="m 278.20098,-197.77617 a 23,23 0 1 1 -25.97715,25.97715"
         style="fill:#445fe5" />
      <rect
         id="rect80"
         height="50"
         width="50"
         y="-150"
         x="0"
         style="fill:#e5448d" />
      <path
         id="path82"
         d="m 21.799019,-102.22383 a 23,23 0 1 1 25.977147,-25.97715"
         style="fill:#44e557" />
      <rect
         id="rect84"
         height="50"
         width="50"
         y="-150"
         x="50"
         style="fill:#44e5e2" />
      <path
         id="path86"
         d="m 50,-150 13,37 37,13 -13,-37 z"
         style="fill:#e5448d" />
      <rect
         id="rect88"
         height="50"
         width="50"
         y="-150"
         x="100"
         style="fill:#e58744" />
      <path
         id="path90"
         d="m 149,-105 -23,-41 -23,41 z"
         style="fill:#445fe5" />
      <rect
         id="rect92"
         height="50"
         width="50"
         y="-150"
         x="150"
         style="fill:#b544e5" />
      <path
         id="path94"
         d="m 195,-149 -41,23 41,23 z"
         style="fill:#bae544" />
      <rect
         id="rect96"
         height="50"
         width="50"
         y="-150"
         x="200"
         style="fill:#e58744" />
      <path
         id="path98"
         d="m 200,-100 13,-37 37,-13 -13,37 z"
         style="fill:#44e5e2" />
      <rect
         id="rect100"
         height="50"
         width="50"
         y="-150"
         x="250"
         style="fill:#44e5e2" />
      <circle
         id="circle102"
         r="17"
         cy="-125"
         cx="275"
         style="fill:#e58744" />
      <rect
         id="rect104"
         height="50"
         width="50"
         y="-100"
         x="0"
         style="fill:#44e557" />
      <path
         id="path106"
         d="M 45,-99 5,-87.5 V -76 l 40,-11.5 z"
         style="fill:#b544e5" />
      <path
         id="path108"
         d="M 45,-74 5,-62.5 V -51 l 40,-11.5 z"
         style="fill:#b544e5" />
      <rect
         id="rect110"
         height="50"
         width="50"
         y="-100"
         x="50"
         style="fill:#b544e5" />
      <path
         id="path112"
         d="m 95,-99 -41,23 41,23 z"
         style="fill:#44e5e2" />
      <rect
         id="rect114"
         height="50"
         width="50"
         y="-100"
         x="100"
         style="fill:#44e557" />
      <path
         id="path116"
         d="m 100,-100 13,37 37,13 -13,-37 z"
         style="fill:#e5448d" />
      <rect
         id="rect118"
         height="50"
         width="50"
         y="-100"
         x="150"
         style="fill:#44e5e2" />
      <path
         id="path120"
         d="m 150,-50 13,-37 37,-13 -13,37 z"
         style="fill:#e58744" />
      <rect
         id="rect122"
         height="50"
         width="50"
         y="-100"
         x="200"
         style="fill:#b544e5" />
      <path
         id="path124"
         d="m 201,-95 23,41 23,-41 z"
         style="fill:#44e557" />
      <rect
         id="rect126"
         height="50"
         width="50"
         y="-100"
         x="250"
         style="fill:#44e557" />
      <rect
         id="rect128"
         height="28"
         width="28"
         y="-89"
         x="261"
         style="fill:#445fe5" />
      <rect
         id="rect130"
         height="50"
         width="50"
         y="-50"
         x="0"
         style="fill:#bae544" />
      <rect
         id="rect132"
         height="28"
         width="28"
         y="-39"
         x="11"
         style="fill:#e5448d" />
      <rect
         id="rect134"
         height="50"
         width="50"
         y="-50"
         x="50"
         style="fill:#e5448d" />
      <rect
         id="rect136"
         height="28"
         width="28"
         y="-39"
         x="61"
         style="fill:#44e557" />
      <rect
         id="rect138"
         height="50"
         width="50"
         y="-50"
         x="100"
         style="fill:#e58744" />
      <circle
         id="circle140"
         r="17"
         cy="-25"
         cx="125"
         style="fill:#b544e5" />
      <rect
         id="rect142"
         height="50"
         width="50"
         y="-50"
         x="150"
         style="fill:#e5448d" />
      <path
         id="path144"
         d="M 197.77617,-21.799019 A 23,23 0 1 1 171.79902,-47.776166"
         style="fill:#44e5e2" />
      <rect
         id="rect146"
         height="50"
         width="50"
         y="-50"
         x="200"
         style="fill:#44e557" />
      <path
         id="path148"
         d="M 249,-5 237.5,-45 H 226 l 11.5,40 z"
         style="fill:#e58744" />
      <path
         id="path150"
         d="M 224,-5 212.5,-45 H 201 l 11.5,40 z"
         style="fill:#e58744" />
      <rect
         id="rect152"
         height="50"
         width="50"
         y="-50"
         x="250"
         style="fill:#b544e5" />
      <rect
         id="rect154"
         height="28"
         width="28"
         y="-39"
         x="261"
         style="fill:#44e5e2" />
      <path
         id="path156"
         d="M 0,0 V -300 H 300 V 0 Z"
         style="fill-opacity:0;stroke:#000000" />
    </g>
  </g>
  <g
     id="g1825">
    <g
       transform="matrix(-1,0,0,1,299.5,323)"
       id="g1046-3">
      <rect
         style="fill:#445fe5"
         id="rect4-6"
         height="50"
         width="50"
         y="-300"
         x="0" />
      <rect
         style="fill:#44e557"
         id="rect6-7"
         height="28"
         width="28"
         y="-289"
         x="11" />
      <rect
         style="fill:#bae544"
         id="rect8-5"
         height="50"
         width="50"
         y="-300"
         x="50" />
      <path
         style="fill:#b544e5"
         id="path10-3"
         d="M 99,-255 87.5,-295 H 76 l 11.5,40 z" />
      <path
         style="fill:#b544e5"
         id="path12-5"
         d="M 74,-255 62.5,-295 H 51 l 11.5,40 z" />
      <rect
         style="fill:#44e557"
         id="rect14-6"
         height="50"
         width="50"
         y="-300"
         x="100" />
      <path
         style="fill:#e5448d"
         id="path16-2"
         d="m 102.22383,-278.20098 a 23,23 0 1 1 25.97715,25.97715" />
      <rect
         style="fill:#e5448d"
         id="rect18-9"
         height="50"
         width="50"
         y="-300"
         x="150" />
      <circle
         style="fill:#445fe5"
         id="circle20-1"
         r="17"
         cy="-275"
         cx="175" />
      <rect
         style="fill:#bae544"
         id="rect22-2"
         height="50"
         width="50"
         y="-300"
         x="200" />
      <rect
         style="fill:#b544e5"
         id="rect24-7"
         height="28"
         width="28"
         y="-289"
         x="211" />
      <rect
         style="fill:#b544e5"
         id="rect26-0"
         height="50"
         width="50"
         y="-300"
         x="250" />
      <rect
         style="fill:#44e557"
         id="rect28-9"
         height="28"
         width="28"
         y="-289"
         x="261" />
      <rect
         style="fill:#44e5e2"
         id="rect30-3"
         height="50"
         width="50"
         y="-250"
         x="0" />
      <rect
         style="fill:#b544e5"
         id="rect32-6"
         height="28"
         width="28"
         y="-239"
         x="11" />
      <rect
         style="fill:#445fe5"
         id="rect34-0"
         height="50"
         width="50"
         y="-250"
         x="50" />
      <path
         style="fill:#e5448d"
         id="path36-6"
         d="m 99,-205 -23,-41 -23,41 z" />
      <rect
         style="fill:#b544e5"
         id="rect38-2"
         height="50"
         width="50"
         y="-250"
         x="100" />
      <path
         style="fill:#bae544"
         id="path40-6"
         d="m 100,-200 13,-37 37,-13 -13,37 z" />
      <rect
         style="fill:#445fe5"
         id="rect42-1"
         height="50"
         width="50"
         y="-250"
         x="150" />
      <path
         style="fill:#44e557"
         id="path44-8"
         d="m 150,-250 13,37 37,13 -13,-37 z" />
      <rect
         style="fill:#44e5e2"
         id="rect46-7"
         height="50"
         width="50"
         y="-250"
         x="200" />
      <path
         style="fill:#e5448d"
         id="path48-9"
         d="m 205,-201 41,-23 -41,-23 z" />
      <rect
         style="fill:#e58744"
         id="rect50-2"
         height="50"
         width="50"
         y="-250"
         x="250" />
      <path
         style="fill:#b544e5"
         id="path52-0"
         d="m 295,-249 -40,11.5 v 11.5 l 40,-11.5 z" />
      <path
         style="fill:#b544e5"
         id="path54-2"
         d="m 295,-224 -40,11.5 v 11.5 l 40,-11.5 z" />
      <rect
         style="fill:#b544e5"
         id="rect56-3"
         height="50"
         width="50"
         y="-200"
         x="0" />
      <circle
         style="fill:#e58744"
         id="circle58-7"
         r="17"
         cy="-175"
         cx="25" />
      <rect
         style="fill:#e58744"
         id="rect60-5"
         height="50"
         width="50"
         y="-200"
         x="50" />
      <path
         style="fill:#445fe5"
         id="path62-9"
         d="m 50,-150 13,-37 37,-13 -13,37 z" />
      <rect
         style="fill:#44e5e2"
         id="rect64-2"
         height="50"
         width="50"
         y="-200"
         x="100" />
      <path
         style="fill:#e58744"
         id="path66-2"
         d="m 105,-151 41,-23 -41,-23 z" />
      <rect
         style="fill:#bae544"
         id="rect68-8"
         height="50"
         width="50"
         y="-200"
         x="150" />
      <path
         style="fill:#e5448d"
         id="path70-9"
         d="m 151,-195 23,41 23,-41 z" />
      <rect
         style="fill:#b544e5"
         id="rect72-7"
         height="50"
         width="50"
         y="-200"
         x="200" />
      <path
         style="fill:#44e557"
         id="path74-3"
         d="m 200,-200 13,37 37,13 -13,-37 z" />
      <rect
         style="fill:#bae544"
         id="rect76-6"
         height="50"
         width="50"
         y="-200"
         x="250" />
      <path
         style="fill:#445fe5"
         id="path78-1"
         d="m 278.20098,-197.77617 a 23,23 0 1 1 -25.97715,25.97715" />
      <rect
         style="fill:#e5448d"
         id="rect80-2"
         height="50"
         width="50"
         y="-150"
         x="0" />
      <path
         style="fill:#44e557"
         id="path82-9"
         d="m 21.799019,-102.22383 a 23,23 0 1 1 25.977147,-25.97715" />
      <rect
         style="fill:#44e5e2"
         id="rect84-3"
         height="50"
         width="50"
         y="-150"
         x="50" />
      <path
         style="fill:#e5448d"
         id="path86-1"
         d="m 50,-150 13,37 37,13 -13,-37 z" />
      <rect
         style="fill:#e58744"
         id="rect88-9"
         height="50"
         width="50"
         y="-150"
         x="100" />
      <path
         style="fill:#445fe5"
         id="path90-4"
         d="m 149,-105 -23,-41 -23,41 z" />
      <rect
         style="fill:#b544e5"
         id="rect92-7"
         height="50"
         width="50"
         y="-150"
         x="150" />
      <path
         style="fill:#bae544"
         id="path94-8"
         d="m 195,-149 -41,23 41,23 z" />
      <rect
         style="fill:#e58744"
         id="rect96-4"
         height="50"
         width="50"
         y="-150"
         x="200" />
      <path
         style="fill:#44e5e2"
         id="path98-5"
         d="m 200,-100 13,-37 37,-13 -13,37 z" />
      <rect
         style="fill:#44e5e2"
         id="rect100-0"
         height="50"
         width="50"
         y="-150"
         x="250" />
      <circle
         style="fill:#e58744"
         id="circle102-3"
         r="17"
         cy="-125"
         cx="275" />
      <rect
         style="fill:#44e557"
         id="rect104-6"
         height="50"
         width="50"
         y="-100"
         x="0" />
      <path
         style="fill:#b544e5"
         id="path106-1"
         d="M 45,-99 5,-87.5 V -76 l 40,-11.5 z" />
      <path
         style="fill:#b544e5"
         id="path108-0"
         d="M 45,-74 5,-62.5 V -51 l 40,-11.5 z" />
      <rect
         style="fill:#b544e5"
         id="rect110-6"
         height="50"
         width="50"
         y="-100"
         x="50" />
      <path
         style="fill:#44e5e2"
         id="path112-3"
         d="m 95,-99 -41,23 41,23 z" />
      <rect
         style="fill:#44e557"
         id="rect114-2"
         height="50"
         width="50"
         y="-100"
         x="100" />
      <path
         style="fill:#e5448d"
         id="path116-0"
         d="m 100,-100 13,37 37,13 -13,-37 z" />
      <rect
         style="fill:#44e5e2"
         id="rect118-6"
         height="50"
         width="50"
         y="-100"
         x="150" />
      <path
         style="fill:#e58744"
         id="path120-1"
         d="m 150,-50 13,-37 37,-13 -13,37 z" />
      <rect
         style="fill:#b544e5"
         id="rect122-5"
         height="50"
         width="50"
         y="-100"
         x="200" />
      <path
         style="fill:#44e557"
         id="path124-5"
         d="m 201,-95 23,41 23,-41 z" />
      <rect
         style="fill:#44e557"
         id="rect126-4"
         height="50"
         width="50"
         y="-100"
         x="250" />
      <rect
         style="fill:#445fe5"
         id="rect128-7"
         height="28"
         width="28"
         y="-89"
         x="261" />
      <rect
         style="fill:#bae544"
         id="rect130-6"
         height="50"
         width="50"
         y="-50"
         x="0" />
      <rect
         style="fill:#e5448d"
         id="rect132-5"
         height="28"
         width="28"
         y="-39"
         x="11" />
      <rect
         style="fill:#e5448d"
         id="rect134-6"
         height="50"
         width="50"
         y="-50"
         x="50" />
      <rect
         style="fill:#44e557"
         id="rect136-9"
         height="28"
         width="28"
         y="-39"
         x="61" />
      <rect
         style="fill:#e58744"
         id="rect138-3"
         height="50"
         width="50"
         y="-50"
         x="100" />
      <circle
         style="fill:#b544e5"
         id="circle140-7"
         r="17"
         cy="-25"
         cx="125" />
      <rect
         style="fill:#e5448d"
         id="rect142-4"
         height="50"
         width="50"
         y="-50"
         x="150" />
      <path
         style="fill:#44e5e2"
         id="path144-5"
         d="M 197.77617,-21.799019 A 23,23 0 1 1 171.79902,-47.776166" />
      <rect
         style="fill:#44e557"
         id="rect146-2"
         height="50"
         width="50"
         y="-50"
         x="200" />
      <path
         style="fill:#e58744"
         id="path148-5"
         d="M 249,-5 237.5,-45 H 226 l 11.5,40 z" />
      <path
         style="fill:#e58744"
         id="path150-4"
         d="M 224,-5 212.5,-45 H 201 l 11.5,40 z" />
      <rect
         style="fill:#b544e5"
         id="rect152-7"
         height="50"
         width="50"
         y="-50"
         x="250" />
      <rect
         style="fill:#44e5e2"
         id="rect154-4"
         height="28"
         width="28"
         y="-39"
         x="261" />
      <path
         style="fill-opacity:0;stroke:#000000"
         id="path156-4"
         d="M 0,0 V -300 H 300 V 0 Z" />
    </g>
  </g>
  <g
     transform="translate(0,-16.08116)"
     id="g1909">
    <g
       id="g1665"
       transform="translate(419.57527,522.39011)">
      <rect
         style="fill:none;stroke:#000000;stroke-opacity:1"
         id="rect4-7"
         height="50"
         width="50"
         y="-168.16064"
         x="-420.07526" />
      <rect
         style="fill:none;stroke:#000000;stroke-opacity:1"
         id="rect6-8"
         height="28"
         width="28"
         y="-157.16064"
         x="-409.07526" />
      <rect
         style="fill:none;stroke:#000000;stroke-opacity:1"
         id="rect8-6"
         height="50"
         width="50"
         y="-168.16064"
         x="-370.07526" />
      <path
         style="fill:none;stroke:#000000;stroke-opacity:1"
         id="path10-8"
         d="m -321.07527,-123.16064 -11.5,-40 h -11.5 l 11.5,40 z" />
      <path
         style="fill:none;stroke:#000000;stroke-opacity:1"
         id="path12-8"
         d="m -346.07527,-123.16064 -11.5,-40 h -11.5 l 11.5,40 z" />
      <rect
         style="fill:none;stroke:#000000;stroke-opacity:1"
         id="rect14-4"
         height="50"
         width="50"
         y="-168.16064"
         x="-320.07526" />
      <path
         style="fill:none;stroke:#000000;stroke-opacity:1"
         id="path16-3"
         d="m -317.85144,-146.36162 a 23,23 0 1 1 25.97715,25.97715" />
      <rect
         style="fill:none;stroke:#000000;stroke-opacity:1"
         id="rect18-1"
         height="50"
         width="50"
         y="-168.16064"
         x="-270.07526" />
      <circle
         style="fill:none;stroke:#000000;stroke-opacity:1"
         id="circle20-4"
         r="17"
         cy="-143.16064"
         cx="-245.07527" />
      <rect
         style="fill:none;stroke:#000000;stroke-opacity:1"
         id="rect22-9"
         height="50"
         width="50"
         y="-168.16064"
         x="-220.07527" />
      <rect
         style="fill:none;stroke:#000000;stroke-opacity:1"
         id="rect24-2"
         height="28"
         width="28"
         y="-157.16064"
         x="-209.07527" />
      <rect
         style="fill:none;stroke:#000000;stroke-opacity:1"
         id="rect26-06"
         height="50"
         width="50"
         y="-168.16064"
         x="-170.07527" />
      <rect
         style="fill:none;stroke:#000000;stroke-opacity:1"
         id="rect28-8"
         height="28"
         width="28"
         y="-157.16064"
         x="-159.07527" />
      <rect
         style="fill:none;stroke:#000000;stroke-opacity:1"
         id="rect30-9"
         height="50"
         width="50"
         y="-118.16064"
         x="-420.07526" />
      <rect
         style="fill:none;stroke:#000000;stroke-opacity:1"
         id="rect32-2"
         height="28"
         width="28"
         y="-107.16064"
         x="-409.07526" />
      <rect
         style="fill:none;stroke:#000000;stroke-opacity:1"
         id="rect34-6"
         height="50"
         width="50"
         y="-118.16064"
         x="-370.07526" />
      <path
         style="fill:none;stroke:#000000;stroke-opacity:1"
         id="path36-64"
         d="m -321.07527,-73.16064 -23,-41 -23,41 z" />
      <rect
         style="fill:none;stroke:#000000;stroke-opacity:1"
         id="rect38-9"
         height="50"
         width="50"
         y="-118.16064"
         x="-320.07526" />
      <path
         style="fill:none;stroke:#000000;stroke-opacity:1"
         id="path40-5"
         d="m -320.07527,-68.16064 13,-37 37,-13 -13,37 z" />
      <rect
         style="fill:none;stroke:#000000;stroke-opacity:1"
         id="rect42-0"
         height="50"
         width="50"
         y="-118.16064"
         x="-270.07526" />
      <path
         style="fill:none;stroke:#000000;stroke-opacity:1"
         id="path44-4"
         d="m -270.07527,-118.16064 13,37 37,13 -13,-37 z" />
      <rect
         style="fill:none;stroke:#000000;stroke-opacity:1"
         id="rect46-8"
         height="50"
         width="50"
         y="-118.16064"
         x="-220.07527" />
      <path
         style="fill:none;stroke:#000000;stroke-opacity:1"
         id="path48-7"
         d="m -215.07527,-69.16064 41,-23 -41,-23 z" />
      <rect
         style="fill:none;stroke:#000000;stroke-opacity:1"
         id="rect50-1"
         height="50"
         width="50"
         y="-118.16064"
         x="-170.07527" />
      <path
         style="fill:none;stroke:#000000;stroke-opacity:1"
         id="path52-7"
         d="m -125.07527,-117.16064 -40,11.5 v 11.5 l 40,-11.5 z" />
      <path
         style="fill:none;stroke:#000000;stroke-opacity:1"
         id="path54-27"
         d="m -125.07527,-92.16064 -40,11.5 v 11.5 l 40,-11.5 z" />
      <rect
         style="fill:none;stroke:#000000;stroke-opacity:1"
         id="rect56-2"
         height="50"
         width="50"
         y="-68.160637"
         x="-420.07526" />
      <circle
         style="fill:none;stroke:#000000;stroke-opacity:1"
         id="circle58-2"
         r="17"
         cy="-43.160641"
         cx="-395.07526" />
      <rect
         style="fill:none;stroke:#000000;stroke-opacity:1"
         id="rect60-6"
         height="50"
         width="50"
         y="-68.160637"
         x="-370.07526" />
      <path
         style="fill:none;stroke:#000000;stroke-opacity:1"
         id="path62-1"
         d="m -370.07527,-18.16064 13,-37 37,-13 -13,37 z" />
      <rect
         style="fill:none;stroke:#000000;stroke-opacity:1"
         id="rect64-0"
         height="50"
         width="50"
         y="-68.160637"
         x="-320.07526" />
      <path
         style="fill:none;stroke:#000000;stroke-opacity:1"
         id="path66-6"
         d="m -315.07527,-19.16064 41,-23 -41,-23 z" />
      <rect
         style="fill:none;stroke:#000000;stroke-opacity:1"
         id="rect68-1"
         height="50"
         width="50"
         y="-68.160637"
         x="-270.07526" />
      <path
         style="fill:none;stroke:#000000;stroke-opacity:1"
         id="path70-5"
         d="m -269.07527,-63.16064 23,41 23,-41 z" />
      <rect
         style="fill:none;stroke:#000000;stroke-opacity:1"
         id="rect72-9"
         height="50"
         width="50"
         y="-68.160637"
         x="-220.07527" />
      <path
         style="fill:none;stroke:#000000;stroke-opacity:1"
         id="path74-4"
         d="m -220.07527,-68.16064 13,37 37,13 -13,-37 z" />
      <rect
         style="fill:none;stroke:#000000;stroke-opacity:1"
         id="rect76-9"
         height="50"
         width="50"
         y="-68.160637"
         x="-170.07527" />
      <path
         style="fill:none;stroke:#000000;stroke-width:1;stroke-miterlimit:4;stroke-dasharray:none;stroke-opacity:1"
         id="path78-0"
         d="m -141.87429,-65.93681 a 23,23 0 1 1 -25.97715,25.97715" />
      <rect
         style="fill:none;stroke:#000000;stroke-opacity:1"
         id="rect80-9"
         height="50"
         width="50"
         y="-18.160641"
         x="-420.07526" />
      <path
         style="fill:none;stroke:#000000;stroke-opacity:1"
         id="path82-1"
         d="M -398.27625,29.61553 A 23,23 0 1 1 -372.2991,3.63838" />
      <rect
         style="fill:none;stroke:#000000;stroke-opacity:1"
         id="rect84-7"
         height="50"
         width="50"
         y="-18.160641"
         x="-370.07526" />
      <path
         style="fill:none;stroke:#000000;stroke-opacity:1"
         id="path86-7"
         d="m -370.07527,-18.16064 13,37 37,13 -13,-37 z" />
      <rect
         style="fill:none;stroke:#000000;stroke-opacity:1"
         id="rect88-1"
         height="50"
         width="50"
         y="-18.160641"
         x="-320.07526" />
      <path
         style="fill:none;stroke:#000000;stroke-opacity:1"
         id="path90-1"
         d="m -271.07527,26.83936 -23,-41 -23,41 z" />
      <rect
         style="fill:none;stroke:#000000;stroke-opacity:1"
         id="rect92-5"
         height="50"
         width="50"
         y="-18.160641"
         x="-270.07526" />
      <path
         style="fill:none;stroke:#000000;stroke-opacity:1"
         id="path94-9"
         d="m -225.07527,-17.16064 -41,23 41,23 z" />
      <rect
         style="fill:none;stroke:#000000;stroke-opacity:1"
         id="rect96-7"
         height="50"
         width="50"
         y="-18.160641"
         x="-220.07527" />
      <path
         style="fill:none;stroke:#000000;stroke-opacity:1"
         id="path98-7"
         d="m -220.07527,31.83936 13,-37 37,-13 -13,37 z" />
      <rect
         style="fill:none;stroke:#000000;stroke-opacity:1"
         id="rect100-6"
         height="50"
         width="50"
         y="-18.160641"
         x="-170.07527" />
      <circle
         style="fill:none;stroke:#000000;stroke-opacity:1"
         id="circle102-7"
         r="17"
         cy="6.8393602"
         cx="-145.07527" />
      <rect
         style="fill:none;stroke:#000000;stroke-opacity:1"
         id="rect104-3"
         height="50"
         width="50"
         y="31.839359"
         x="-420.07526" />
      <path
         style="fill:none;stroke:#000000;stroke-opacity:1"
         id="path106-6"
         d="m -375.07527,32.83936 -40,11.5 v 11.5 l 40,-11.5 z" />
      <path
         style="fill:none;stroke:#000000;stroke-opacity:1"
         id="path108-5"
         d="m -375.07527,57.83936 -40,11.5 v 11.5 l 40,-11.5 z" />
      <rect
         style="fill:none;stroke:#000000;stroke-opacity:1"
         id="rect110-63"
         height="50"
         width="50"
         y="31.839359"
         x="-370.07526" />
      <path
         style="fill:none;stroke:#000000;stroke-opacity:1"
         id="path112-9"
         d="m -325.07527,32.83936 -41,23 41,23 z" />
      <rect
         style="fill:none;stroke:#000000;stroke-opacity:1"
         id="rect114-4"
         height="50"
         width="50"
         y="31.839359"
         x="-320.07526" />
      <path
         style="fill:none;stroke:#000000;stroke-opacity:1"
         id="path116-8"
         d="m -320.07527,31.83936 13,37 37,13 -13,-37 z" />
      <rect
         style="fill:none;stroke:#000000;stroke-opacity:1"
         id="rect118-1"
         height="50"
         width="50"
         y="31.839359"
         x="-270.07526" />
      <path
         style="fill:none;stroke:#000000;stroke-opacity:1"
         id="path120-2"
         d="m -270.07527,81.83936 13,-37 37,-13 -13,37 z" />
      <rect
         style="fill:none;stroke:#000000;stroke-opacity:1"
         id="rect122-9"
         height="50"
         width="50"
         y="31.839359"
         x="-220.07527" />
      <path
         style="fill:none;stroke:#000000;stroke-opacity:1"
         id="path124-3"
         d="m -219.07527,36.83936 23,41 23,-41 z" />
      <rect
         style="fill:none;stroke:#000000;stroke-opacity:1"
         id="rect126-9"
         height="50"
         width="50"
         y="31.839359"
         x="-170.07527" />
      <rect
         style="fill:none;stroke:#000000;stroke-opacity:1"
         id="rect128-0"
         height="28"
         width="28"
         y="42.839359"
         x="-159.07527" />
      <rect
         style="fill:none;stroke:#000000;stroke-opacity:1"
         id="rect130-8"
         height="50"
         width="50"
         y="81.839363"
         x="-420.07526" />
      <rect
         style="fill:none;stroke:#000000;stroke-opacity:1"
         id="rect132-8"
         height="28"
         width="28"
         y="92.839363"
         x="-409.07526" />
      <rect
         style="fill:none;stroke:#000000;stroke-opacity:1"
         id="rect134-5"
         height="50"
         width="50"
         y="81.839363"
         x="-370.07526" />
      <rect
         style="fill:none;stroke:#000000;stroke-opacity:1"
         id="rect136-0"
         height="28"
         width="28"
         y="92.839363"
         x="-359.07526" />
      <rect
         style="fill:none;stroke:#000000;stroke-opacity:1"
         id="rect138-9"
         height="50"
         width="50"
         y="81.839363"
         x="-320.07526" />
      <circle
         style="fill:none;stroke:#000000;stroke-opacity:1"
         id="circle140-6"
         r="17"
         cy="106.83936"
         cx="-295.07526" />
      <rect
         style="fill:none;stroke:#000000;stroke-opacity:1"
         id="rect142-3"
         height="50"
         width="50"
         y="81.839363"
         x="-270.07526" />
      <path
         style="fill:none;stroke:#000000;stroke-opacity:1"
         id="path144-8"
         d="M -222.2991,110.04034 A 23,23 0 1 1 -248.27625,84.063194" />
      <rect
         style="fill:none;stroke:#000000;stroke-opacity:1"
         id="rect146-5"
         height="50"
         width="50"
         y="81.839363"
         x="-220.07527" />
      <path
         style="fill:none;stroke:#000000;stroke-opacity:1"
         id="path148-6"
         d="m -171.07527,126.83936 -11.5,-40 h -11.5 l 11.5,40 z" />
      <path
         style="fill:none;stroke:#000000;stroke-opacity:1"
         id="path150-1"
         d="m -196.07527,126.83936 -11.5,-40 h -11.5 l 11.5,40 z" />
      <rect
         style="fill:none;stroke:#000000;stroke-opacity:1"
         id="rect152-1"
         height="50"
         width="50"
         y="81.839363"
         x="-170.07527" />
      <rect
         style="fill:none;stroke:#000000;stroke-opacity:1"
         id="rect154-5"
         height="28"
         width="28"
         y="92.839363"
         x="-159.07527" />
      <path
         style="fill:none;fill-opacity:0;stroke:#000000;stroke-opacity:1"
         id="path156-9"
         d="m -420.07527,131.83936 v -300 h 300 v 300 z" />
      <path
         id="path1531-8"
         d="m -141.87429,-65.93681 -25.97715,25.97715"
         style="fill:none;stroke:#000000;stroke-width:1px;stroke-linecap:round;stroke-linejoin:miter;stroke-opacity:1" />
      <path
         id="path1531-8-4"
         d="m -318.28201,-147.16813 25.97715,25.97715"
         style="fill:none;stroke:#000000;stroke-width:1px;stroke-linecap:round;stroke-linejoin:miter;stroke-opacity:1" />
      <path
         id="path1531-8-8"
         d="M -372.2991,3.6383802 -398.27625,29.61553"
         style="fill:none;stroke:#000000;stroke-width:1px;stroke-linecap:round;stroke-linejoin:miter;stroke-opacity:1" />
      <path
         id="path1531-8-1"
         d="m -248.27625,84.06319 25.97715,25.97715"
         style="fill:none;stroke:#000000;stroke-width:1px;stroke-linecap:round;stroke-linejoin:miter;stroke-opacity:1" />
    </g>
  </g>
</svg>
